[gd_resource type="Resource" script_class="UpgradeData" load_steps=2 format=3]

[ext_resource type="Script" path="res://src/systems/upgrades/resources/UpgradeDefinition.gd" id="1_ppkft"]

[resource]
script = ExtResource("1_ppkft")
name = "Turn Speed"
description = "Increases the turret's rotation speed"
cost = 10
property = "ROTATION_RATE"
upgrade_value = 5.0
level = 0
max_level = 5
cost_multiplier = 2
